/home/rasika/workspace/osqa/forum/modules/__init__.py TIME: 2012-10-16 03:59:31,495 MSG: __init__.py:get_modules_script:27 Error importing startup from module <module 'osqa.forum_modules.mysqlfulltext' from '/home/rasika/workspace/osqa/../osqa/forum_modules/mysqlfulltext/__init__.pyc'>: 
 Traceback (most recent call last):
  File "/home/rasika/workspace/osqa/forum/modules/__init__.py", line 18, in get_modules_script
    all.append(__import__('%s.%s' % (m.__name__, script_name), globals(), locals(), [m.__name__]))
  File "/home/rasika/workspace/osqa/../osqa/forum_modules/mysqlfulltext/startup.py", line 36, in <module>
    cursor.close()
  File "/home/rasika/virtualenvs/osqa/local/lib/python2.7/site-packages/MySQLdb/cursors.py", line 100, in close
    while self.nextset(): pass
  File "/home/rasika/virtualenvs/osqa/local/lib/python2.7/site-packages/MySQLdb/cursors.py", line 132, in nextset
    nr = db.next_result()
ProgrammingError: (1064, "You have an error in your SQL syntax; check the manual that corresponds to your MySQL server version for the right syntax to use near 'delimiter |\n\nCREATE TRIGGER fts_on_insert AFTER INSERT ON forum_node\n  FOR EACH ' at line 1")

/home/rasika/virtualenvs/osqa/local/lib/python2.7/site-packages/django/core/handlers/base.py TIME: 2012-10-16 04:00:32,540 MSG: base.py:handle_uncaught_exception:209 Internal Server Error: /account/local/register/
Traceback (most recent call last):
  File "/home/rasika/virtualenvs/osqa/local/lib/python2.7/site-packages/django/core/handlers/base.py", line 111, in get_response
    response = callback(request, *callback_args, **callback_kwargs)
  File "/home/rasika/workspace/osqa/../osqa/forum_modules/localauth/views.py", line 29, in register
    return login_and_forward(request, user_, None, _("A welcome email has been sent to your email address. "))
  File "/home/rasika/workspace/osqa/forum/views/auth.py", line 392, in login_and_forward
    request.user.message_set.create(message=message)
  File "/home/rasika/virtualenvs/osqa/local/lib/python2.7/site-packages/django/db/models/fields/related.py", line 436, in create
    return super(RelatedManager, self.db_manager(db)).create(**kwargs)
  File "/home/rasika/virtualenvs/osqa/local/lib/python2.7/site-packages/django/db/models/manager.py", line 138, in create
    return self.get_query_set().create(**kwargs)
  File "/home/rasika/virtualenvs/osqa/local/lib/python2.7/site-packages/django/db/models/query.py", line 360, in create
    obj.save(force_insert=True, using=self.db)
  File "/home/rasika/virtualenvs/osqa/local/lib/python2.7/site-packages/django/db/models/base.py", line 460, in save
    self.save_base(using=using, force_insert=force_insert, force_update=force_update)
  File "/home/rasika/virtualenvs/osqa/local/lib/python2.7/site-packages/django/db/models/base.py", line 553, in save_base
    result = manager._insert(values, return_id=update_pk, using=using)
  File "/home/rasika/virtualenvs/osqa/local/lib/python2.7/site-packages/django/db/models/manager.py", line 195, in _insert
    return insert_query(self.model, values, **kwargs)
  File "/home/rasika/virtualenvs/osqa/local/lib/python2.7/site-packages/django/db/models/query.py", line 1436, in insert_query
    return query.get_compiler(using=using).execute_sql(return_id)
  File "/home/rasika/virtualenvs/osqa/local/lib/python2.7/site-packages/django/db/models/sql/compiler.py", line 791, in execute_sql
    cursor = super(SQLInsertCompiler, self).execute_sql(None)
  File "/home/rasika/virtualenvs/osqa/local/lib/python2.7/site-packages/django/db/models/sql/compiler.py", line 735, in execute_sql
    cursor.execute(sql, params)
  File "/home/rasika/virtualenvs/osqa/local/lib/python2.7/site-packages/django/db/backends/mysql/base.py", line 86, in execute
    return self.cursor.execute(query, args)
  File "/home/rasika/virtualenvs/osqa/local/lib/python2.7/site-packages/MySQLdb/cursors.py", line 201, in execute
    self.errorhandler(self, exc, value)
  File "/home/rasika/virtualenvs/osqa/local/lib/python2.7/site-packages/MySQLdb/connections.py", line 36, in defaulterrorhandler
    raise errorclass, errorvalue
DatabaseError: (1146, "Table 'osqa.auth_message' doesn't exist")
/home/rasika/workspace/osqa/forum/views/meta.py TIME: 2012-10-16 04:00:32,553 MSG: meta.py:error_handler:200 
        error executing request:
        PATH: /account/local/register/
        USER: CorrosiveKid (2)
        METHOD: POST
        POST PARAMETERS:
        		username: CorrosiveKid
		password1: user@123
		password2: user@123
		bnewaccount: Signup
		next: /
		csrfmiddlewaretoken: 30dd8b32bbe3e9001d59b2cb0f882a8f
		email: rasika.am@gmail.com

        GET PARAMETERS:
        None
        HTTP HEADERS:
        		wsgi.version: (1, 0)
		wsgi.multiprocess: False
		RUN_MAIN: true
		HTTP_REFERER: http://localhost:8000/account/local/register/
		GNOME_DESKTOP_SESSION_ID: this-is-deprecated
		SERVER_PROTOCOL: HTTP/1.1
		SERVER_SOFTWARE: WSGIServer/0.1 Python/2.7.3
		SCRIPT_NAME: 
		LESSOPEN: | /usr/bin/lesspipe %s
		REQUEST_METHOD: POST
		LOGNAME: rasika
		USER: rasika
		HTTP_ORIGIN: http://localhost:8000
		PATH: /home/rasika/virtualenvs/osqa/bin:/usr/lib/lightdm/lightdm:/usr/local/sbin:/usr/local/bin:/usr/sbin:/usr/bin:/sbin:/bin:/usr/games
		QUERY_STRING: 
		GNOME_KEYRING_CONTROL: /tmp/keyring-ZyGQsX
		PS1: (osqa)\[\e]0;\u@\h: \w\a\]${debian_chroot:+($debian_chroot)}\u@\h:\w\$ 
		DISPLAY: :0
		SSH_AGENT_PID: 2049
		LANG: en_US.UTF-8
		HTTP_ACCEPT_CHARSET: ISO-8859-1,utf-8;q=0.7,*;q=0.3
		TERM: xterm
		SHELL: /bin/bash
		XDG_SESSION_PATH: /org/freedesktop/DisplayManager/Session0
		XAUTHORITY: /home/rasika/.Xauthority
		SERVER_NAME: localhost
		SESSION_MANAGER: local/rasika-ThinkPad-L420:@/tmp/.ICE-unix/2013,unix/rasika-ThinkPad-L420:/tmp/.ICE-unix/2013
		SHLVL: 1
		MANDATORY_PATH: /usr/share/gconf/ubuntu.mandatory.path
		wsgi.url_scheme: http
		COMPIZ_CONFIG_PROFILE: ubuntu
		WINDOWID: 94371846
		SERVER_PORT: 8000
		GPG_AGENT_INFO: /tmp/keyring-ZyGQsX/gpg:0:1
		HOME: /home/rasika
		REMOTE_ADDR: 127.0.0.1
		CONTENT_LENGTH: 225
		HTTP_CONNECTION: keep-alive
		CONTENT_TYPE: application/x-www-form-urlencoded
		SSH_AUTH_SOCK: /tmp/keyring-ZyGQsX/ssh
		VIRTUAL_ENV: /home/rasika/virtualenvs/osqa
		GDMSESSION: ubuntu
		DEFAULTS_PATH: /usr/share/gconf/ubuntu.default.path
		HTTP_USER_AGENT: Mozilla/5.0 (X11; Linux x86_64) AppleWebKit/536.11 (KHTML, like Gecko) Ubuntu/12.04 Chromium/20.0.1132.47 Chrome/20.0.1132.47 Safari/536.11
		HTTP_HOST: localhost:8000
		wsgi.multithread: True
		XDG_SEAT_PATH: /org/freedesktop/DisplayManager/Seat0
		LESSCLOSE: /usr/bin/lesspipe %s %s
		XDG_CURRENT_DESKTOP: Unity
		DBUS_SESSION_BUS_ADDRESS: unix:abstract=/tmp/dbus-3eGB1F2OiG,guid=9290205b3df956be400a21d800000022
		_: /home/rasika/virtualenvs/osqa/bin/python
		XDG_SESSION_COOKIE: 7733e6e57e2e0edfb0f422ae0000000b-1350362595.711630-2145301097
		HTTP_ACCEPT: text/html,application/xhtml+xml,application/xml;q=0.9,*/*;q=0.8
		DESKTOP_SESSION: ubuntu
		wsgi.file_wrapper: <class 'django.core.servers.basehttp.FileWrapper'>
		XDG_CONFIG_DIRS: /etc/xdg/xdg-ubuntu:/etc/xdg
		GNOME_KEYRING_PID: 2002
		UBUNTU_MENUPROXY: libappmenu.so
		wsgi.run_once: False
		CSRF_COOKIE: 30dd8b32bbe3e9001d59b2cb0f882a8f
		OLDPWD: /home/rasika/workspace
		GATEWAY_INTERFACE: CGI/1.1
		HTTP_ACCEPT_LANGUAGE: en-US,en;q=0.8
		wsgi.input: <socket._fileobject object at 0x7f8b785834d0>
		wsgi.errors: <open file '<stderr>', mode 'w' at 0x7f8b807ff270>
		XDG_DATA_DIRS: /usr/share/ubuntu:/usr/share/gnome:/usr/local/share/:/usr/share/
		PWD: /home/rasika/workspace/osqa
		DJANGO_SETTINGS_MODULE: osqa.settings
		TZ: America/New_York
		COLORTERM: gnome-terminal
		HTTP_CACHE_CONTROL: max-age=0
		LS_COLORS: rs=0:di=01;34:ln=01;36:mh=00:pi=40;33:so=01;35:do=01;35:bd=40;33;01:cd=40;33;01:or=40;31;01:su=37;41:sg=30;43:ca=30;41:tw=30;42:ow=34;42:st=37;44:ex=01;32:*.tar=01;31:*.tgz=01;31:*.arj=01;31:*.taz=01;31:*.lzh=01;31:*.lzma=01;31:*.tlz=01;31:*.txz=01;31:*.zip=01;31:*.z=01;31:*.Z=01;31:*.dz=01;31:*.gz=01;31:*.lz=01;31:*.xz=01;31:*.bz2=01;31:*.bz=01;31:*.tbz=01;31:*.tbz2=01;31:*.tz=01;31:*.deb=01;31:*.rpm=01;31:*.jar=01;31:*.war=01;31:*.ear=01;31:*.sar=01;31:*.rar=01;31:*.ace=01;31:*.zoo=01;31:*.cpio=01;31:*.7z=01;31:*.rz=01;31:*.jpg=01;35:*.jpeg=01;35:*.gif=01;35:*.bmp=01;35:*.pbm=01;35:*.pgm=01;35:*.ppm=01;35:*.tga=01;35:*.xbm=01;35:*.xpm=01;35:*.tif=01;35:*.tiff=01;35:*.png=01;35:*.svg=01;35:*.svgz=01;35:*.mng=01;35:*.pcx=01;35:*.mov=01;35:*.mpg=01;35:*.mpeg=01;35:*.m2v=01;35:*.mkv=01;35:*.webm=01;35:*.ogm=01;35:*.mp4=01;35:*.m4v=01;35:*.mp4v=01;35:*.vob=01;35:*.qt=01;35:*.nuv=01;35:*.wmv=01;35:*.asf=01;35:*.rm=01;35:*.rmvb=01;35:*.flc=01;35:*.avi=01;35:*.fli=01;35:*.flv=01;35:*.gl=01;35:*.dl=01;35:*.xcf=01;35:*.xwd=01;35:*.yuv=01;35:*.cgm=01;35:*.emf=01;35:*.axv=01;35:*.anx=01;35:*.ogv=01;35:*.ogx=01;35:*.aac=00;36:*.au=00;36:*.flac=00;36:*.mid=00;36:*.midi=00;36:*.mka=00;36:*.mp3=00;36:*.mpc=00;36:*.ogg=00;36:*.ra=00;36:*.wav=00;36:*.axa=00;36:*.oga=00;36:*.spx=00;36:*.xspf=00;36:
		REMOTE_HOST: 
		HTTP_ACCEPT_ENCODING: gzip,deflate,sdch
		HTTP_COOKIE: greeting_set=True; sessionid=5fe5a8b7a9367d7a6574424f3518f083; csrftoken=30dd8b32bbe3e9001d59b2cb0f882a8f
		PATH_INFO: /account/local/register/

        COOKIES:
        		csrftoken: 30dd8b32bbe3e9001d59b2cb0f882a8f
		sessionid: 5fe5a8b7a9367d7a6574424f3518f083
		greeting_set: True

        EXCEPTION INFO:
        		Traceback (most recent call last):
		  File "/home/rasika/virtualenvs/osqa/local/lib/python2.7/site-packages/django/core/handlers/base.py", line 111, in get_response
		    response = callback(request, *callback_args, **callback_kwargs)
		  File "/home/rasika/workspace/osqa/../osqa/forum_modules/localauth/views.py", line 29, in register
		    return login_and_forward(request, user_, None, _("A welcome email has been sent to your email address. "))
		  File "/home/rasika/workspace/osqa/forum/views/auth.py", line 392, in login_and_forward
		    request.user.message_set.create(message=message)
		  File "/home/rasika/virtualenvs/osqa/local/lib/python2.7/site-packages/django/db/models/fields/related.py", line 436, in create
		    return super(RelatedManager, self.db_manager(db)).create(**kwargs)
		  File "/home/rasika/virtualenvs/osqa/local/lib/python2.7/site-packages/django/db/models/manager.py", line 138, in create
		    return self.get_query_set().create(**kwargs)
		  File "/home/rasika/virtualenvs/osqa/local/lib/python2.7/site-packages/django/db/models/query.py", line 360, in create
		    obj.save(force_insert=True, using=self.db)
		  File "/home/rasika/virtualenvs/osqa/local/lib/python2.7/site-packages/django/db/models/base.py", line 460, in save
		    self.save_base(using=using, force_insert=force_insert, force_update=force_update)
		  File "/home/rasika/virtualenvs/osqa/local/lib/python2.7/site-packages/django/db/models/base.py", line 553, in save_base
		    result = manager._insert(values, return_id=update_pk, using=using)
		  File "/home/rasika/virtualenvs/osqa/local/lib/python2.7/site-packages/django/db/models/manager.py", line 195, in _insert
		    return insert_query(self.model, values, **kwargs)
		  File "/home/rasika/virtualenvs/osqa/local/lib/python2.7/site-packages/django/db/models/query.py", line 1436, in insert_query
		    return query.get_compiler(using=using).execute_sql(return_id)
		  File "/home/rasika/virtualenvs/osqa/local/lib/python2.7/site-packages/django/db/models/sql/compiler.py", line 791, in execute_sql
		    cursor = super(SQLInsertCompiler, self).execute_sql(None)
		  File "/home/rasika/virtualenvs/osqa/local/lib/python2.7/site-packages/django/db/models/sql/compiler.py", line 735, in execute_sql
		    cursor.execute(sql, params)
		  File "/home/rasika/virtualenvs/osqa/local/lib/python2.7/site-packages/django/db/backends/mysql/base.py", line 86, in execute
		    return self.cursor.execute(query, args)
		  File "/home/rasika/virtualenvs/osqa/local/lib/python2.7/site-packages/MySQLdb/cursors.py", line 201, in execute
		    self.errorhandler(self, exc, value)
		  File "/home/rasika/virtualenvs/osqa/local/lib/python2.7/site-packages/MySQLdb/connections.py", line 36, in defaulterrorhandler
		    raise errorclass, errorvalue
		DatabaseError: (1146, "Table 'osqa.auth_message' doesn't exist")
		

        
/home/rasika/virtualenvs/osqa/local/lib/python2.7/site-packages/django/core/handlers/base.py TIME: 2012-10-16 04:00:54,649 MSG: base.py:handle_uncaught_exception:209 Internal Server Error: /account/local/register/
Traceback (most recent call last):
  File "/home/rasika/virtualenvs/osqa/local/lib/python2.7/site-packages/django/core/handlers/base.py", line 111, in get_response
    response = callback(request, *callback_args, **callback_kwargs)
  File "/home/rasika/workspace/osqa/../osqa/forum_modules/localauth/views.py", line 29, in register
    return login_and_forward(request, user_, None, _("A welcome email has been sent to your email address. "))
  File "/home/rasika/workspace/osqa/forum/views/auth.py", line 392, in login_and_forward
    request.user.message_set.create(message=message)
  File "/home/rasika/virtualenvs/osqa/local/lib/python2.7/site-packages/django/db/models/fields/related.py", line 436, in create
    return super(RelatedManager, self.db_manager(db)).create(**kwargs)
  File "/home/rasika/virtualenvs/osqa/local/lib/python2.7/site-packages/django/db/models/manager.py", line 138, in create
    return self.get_query_set().create(**kwargs)
  File "/home/rasika/virtualenvs/osqa/local/lib/python2.7/site-packages/django/db/models/query.py", line 360, in create
    obj.save(force_insert=True, using=self.db)
  File "/home/rasika/virtualenvs/osqa/local/lib/python2.7/site-packages/django/db/models/base.py", line 460, in save
    self.save_base(using=using, force_insert=force_insert, force_update=force_update)
  File "/home/rasika/virtualenvs/osqa/local/lib/python2.7/site-packages/django/db/models/base.py", line 553, in save_base
    result = manager._insert(values, return_id=update_pk, using=using)
  File "/home/rasika/virtualenvs/osqa/local/lib/python2.7/site-packages/django/db/models/manager.py", line 195, in _insert
    return insert_query(self.model, values, **kwargs)
  File "/home/rasika/virtualenvs/osqa/local/lib/python2.7/site-packages/django/db/models/query.py", line 1436, in insert_query
    return query.get_compiler(using=using).execute_sql(return_id)
  File "/home/rasika/virtualenvs/osqa/local/lib/python2.7/site-packages/django/db/models/sql/compiler.py", line 791, in execute_sql
    cursor = super(SQLInsertCompiler, self).execute_sql(None)
  File "/home/rasika/virtualenvs/osqa/local/lib/python2.7/site-packages/django/db/models/sql/compiler.py", line 735, in execute_sql
    cursor.execute(sql, params)
  File "/home/rasika/virtualenvs/osqa/local/lib/python2.7/site-packages/django/db/backends/mysql/base.py", line 86, in execute
    return self.cursor.execute(query, args)
  File "/home/rasika/virtualenvs/osqa/local/lib/python2.7/site-packages/MySQLdb/cursors.py", line 201, in execute
    self.errorhandler(self, exc, value)
  File "/home/rasika/virtualenvs/osqa/local/lib/python2.7/site-packages/MySQLdb/connections.py", line 36, in defaulterrorhandler
    raise errorclass, errorvalue
DatabaseError: (1146, "Table 'osqa.auth_message' doesn't exist")
/home/rasika/workspace/osqa/forum/views/meta.py TIME: 2012-10-16 04:00:54,657 MSG: meta.py:error_handler:200 
        error executing request:
        PATH: /account/local/register/
        USER: CorrosiveKid (3)
        METHOD: POST
        POST PARAMETERS:
        		username: CorrosiveKid
		password1: asdqwe
		password2: asdqwe
		bnewaccount: Signup
		next: /
		csrfmiddlewaretoken: 30dd8b32bbe3e9001d59b2cb0f882a8f
		email: rasika.amaratissa@gmail.com

        GET PARAMETERS:
        None
        HTTP HEADERS:
        		wsgi.version: (1, 0)
		wsgi.multiprocess: False
		RUN_MAIN: true
		HTTP_REFERER: http://localhost:8000/account/local/register/
		GNOME_DESKTOP_SESSION_ID: this-is-deprecated
		SERVER_PROTOCOL: HTTP/1.1
		SERVER_SOFTWARE: WSGIServer/0.1 Python/2.7.3
		SCRIPT_NAME: 
		LESSOPEN: | /usr/bin/lesspipe %s
		REQUEST_METHOD: POST
		LOGNAME: rasika
		USER: rasika
		HTTP_ORIGIN: http://localhost:8000
		PATH: /home/rasika/virtualenvs/osqa/bin:/usr/lib/lightdm/lightdm:/usr/local/sbin:/usr/local/bin:/usr/sbin:/usr/bin:/sbin:/bin:/usr/games
		QUERY_STRING: 
		GNOME_KEYRING_CONTROL: /tmp/keyring-ZyGQsX
		PS1: (osqa)\[\e]0;\u@\h: \w\a\]${debian_chroot:+($debian_chroot)}\u@\h:\w\$ 
		DISPLAY: :0
		SSH_AGENT_PID: 2049
		LANG: en_US.UTF-8
		HTTP_ACCEPT_CHARSET: ISO-8859-1,utf-8;q=0.7,*;q=0.3
		TERM: xterm
		SHELL: /bin/bash
		XDG_SESSION_PATH: /org/freedesktop/DisplayManager/Session0
		XAUTHORITY: /home/rasika/.Xauthority
		SERVER_NAME: localhost
		SESSION_MANAGER: local/rasika-ThinkPad-L420:@/tmp/.ICE-unix/2013,unix/rasika-ThinkPad-L420:/tmp/.ICE-unix/2013
		SHLVL: 1
		MANDATORY_PATH: /usr/share/gconf/ubuntu.mandatory.path
		wsgi.url_scheme: http
		COMPIZ_CONFIG_PROFILE: ubuntu
		WINDOWID: 94371846
		SERVER_PORT: 8000
		GPG_AGENT_INFO: /tmp/keyring-ZyGQsX/gpg:0:1
		HOME: /home/rasika
		REMOTE_ADDR: 127.0.0.1
		CONTENT_LENGTH: 225
		HTTP_CONNECTION: keep-alive
		CONTENT_TYPE: application/x-www-form-urlencoded
		SSH_AUTH_SOCK: /tmp/keyring-ZyGQsX/ssh
		VIRTUAL_ENV: /home/rasika/virtualenvs/osqa
		GDMSESSION: ubuntu
		DEFAULTS_PATH: /usr/share/gconf/ubuntu.default.path
		HTTP_USER_AGENT: Mozilla/5.0 (X11; Linux x86_64) AppleWebKit/536.11 (KHTML, like Gecko) Ubuntu/12.04 Chromium/20.0.1132.47 Chrome/20.0.1132.47 Safari/536.11
		HTTP_HOST: localhost:8000
		wsgi.multithread: True
		XDG_SEAT_PATH: /org/freedesktop/DisplayManager/Seat0
		LESSCLOSE: /usr/bin/lesspipe %s %s
		XDG_CURRENT_DESKTOP: Unity
		DBUS_SESSION_BUS_ADDRESS: unix:abstract=/tmp/dbus-3eGB1F2OiG,guid=9290205b3df956be400a21d800000022
		_: /home/rasika/virtualenvs/osqa/bin/python
		XDG_SESSION_COOKIE: 7733e6e57e2e0edfb0f422ae0000000b-1350362595.711630-2145301097
		HTTP_ACCEPT: text/html,application/xhtml+xml,application/xml;q=0.9,*/*;q=0.8
		DESKTOP_SESSION: ubuntu
		wsgi.file_wrapper: <class 'django.core.servers.basehttp.FileWrapper'>
		XDG_CONFIG_DIRS: /etc/xdg/xdg-ubuntu:/etc/xdg
		GNOME_KEYRING_PID: 2002
		UBUNTU_MENUPROXY: libappmenu.so
		wsgi.run_once: False
		CSRF_COOKIE: 30dd8b32bbe3e9001d59b2cb0f882a8f
		OLDPWD: /home/rasika/workspace
		GATEWAY_INTERFACE: CGI/1.1
		HTTP_ACCEPT_LANGUAGE: en-US,en;q=0.8
		wsgi.input: <socket._fileobject object at 0x7f8b793a18d0>
		wsgi.errors: <open file '<stderr>', mode 'w' at 0x7f8b807ff270>
		XDG_DATA_DIRS: /usr/share/ubuntu:/usr/share/gnome:/usr/local/share/:/usr/share/
		PWD: /home/rasika/workspace/osqa
		DJANGO_SETTINGS_MODULE: osqa.settings
		TZ: America/New_York
		COLORTERM: gnome-terminal
		HTTP_CACHE_CONTROL: max-age=0
		LS_COLORS: rs=0:di=01;34:ln=01;36:mh=00:pi=40;33:so=01;35:do=01;35:bd=40;33;01:cd=40;33;01:or=40;31;01:su=37;41:sg=30;43:ca=30;41:tw=30;42:ow=34;42:st=37;44:ex=01;32:*.tar=01;31:*.tgz=01;31:*.arj=01;31:*.taz=01;31:*.lzh=01;31:*.lzma=01;31:*.tlz=01;31:*.txz=01;31:*.zip=01;31:*.z=01;31:*.Z=01;31:*.dz=01;31:*.gz=01;31:*.lz=01;31:*.xz=01;31:*.bz2=01;31:*.bz=01;31:*.tbz=01;31:*.tbz2=01;31:*.tz=01;31:*.deb=01;31:*.rpm=01;31:*.jar=01;31:*.war=01;31:*.ear=01;31:*.sar=01;31:*.rar=01;31:*.ace=01;31:*.zoo=01;31:*.cpio=01;31:*.7z=01;31:*.rz=01;31:*.jpg=01;35:*.jpeg=01;35:*.gif=01;35:*.bmp=01;35:*.pbm=01;35:*.pgm=01;35:*.ppm=01;35:*.tga=01;35:*.xbm=01;35:*.xpm=01;35:*.tif=01;35:*.tiff=01;35:*.png=01;35:*.svg=01;35:*.svgz=01;35:*.mng=01;35:*.pcx=01;35:*.mov=01;35:*.mpg=01;35:*.mpeg=01;35:*.m2v=01;35:*.mkv=01;35:*.webm=01;35:*.ogm=01;35:*.mp4=01;35:*.m4v=01;35:*.mp4v=01;35:*.vob=01;35:*.qt=01;35:*.nuv=01;35:*.wmv=01;35:*.asf=01;35:*.rm=01;35:*.rmvb=01;35:*.flc=01;35:*.avi=01;35:*.fli=01;35:*.flv=01;35:*.gl=01;35:*.dl=01;35:*.xcf=01;35:*.xwd=01;35:*.yuv=01;35:*.cgm=01;35:*.emf=01;35:*.axv=01;35:*.anx=01;35:*.ogv=01;35:*.ogx=01;35:*.aac=00;36:*.au=00;36:*.flac=00;36:*.mid=00;36:*.midi=00;36:*.mka=00;36:*.mp3=00;36:*.mpc=00;36:*.ogg=00;36:*.ra=00;36:*.wav=00;36:*.axa=00;36:*.oga=00;36:*.spx=00;36:*.xspf=00;36:
		REMOTE_HOST: 
		HTTP_ACCEPT_ENCODING: gzip,deflate,sdch
		HTTP_COOKIE: greeting_set=True; sessionid=5fe5a8b7a9367d7a6574424f3518f083; csrftoken=30dd8b32bbe3e9001d59b2cb0f882a8f
		PATH_INFO: /account/local/register/

        COOKIES:
        		csrftoken: 30dd8b32bbe3e9001d59b2cb0f882a8f
		sessionid: 5fe5a8b7a9367d7a6574424f3518f083
		greeting_set: True

        EXCEPTION INFO:
        		Traceback (most recent call last):
		  File "/home/rasika/virtualenvs/osqa/local/lib/python2.7/site-packages/django/core/handlers/base.py", line 111, in get_response
		    response = callback(request, *callback_args, **callback_kwargs)
		  File "/home/rasika/workspace/osqa/../osqa/forum_modules/localauth/views.py", line 29, in register
		    return login_and_forward(request, user_, None, _("A welcome email has been sent to your email address. "))
		  File "/home/rasika/workspace/osqa/forum/views/auth.py", line 392, in login_and_forward
		    request.user.message_set.create(message=message)
		  File "/home/rasika/virtualenvs/osqa/local/lib/python2.7/site-packages/django/db/models/fields/related.py", line 436, in create
		    return super(RelatedManager, self.db_manager(db)).create(**kwargs)
		  File "/home/rasika/virtualenvs/osqa/local/lib/python2.7/site-packages/django/db/models/manager.py", line 138, in create
		    return self.get_query_set().create(**kwargs)
		  File "/home/rasika/virtualenvs/osqa/local/lib/python2.7/site-packages/django/db/models/query.py", line 360, in create
		    obj.save(force_insert=True, using=self.db)
		  File "/home/rasika/virtualenvs/osqa/local/lib/python2.7/site-packages/django/db/models/base.py", line 460, in save
		    self.save_base(using=using, force_insert=force_insert, force_update=force_update)
		  File "/home/rasika/virtualenvs/osqa/local/lib/python2.7/site-packages/django/db/models/base.py", line 553, in save_base
		    result = manager._insert(values, return_id=update_pk, using=using)
		  File "/home/rasika/virtualenvs/osqa/local/lib/python2.7/site-packages/django/db/models/manager.py", line 195, in _insert
		    return insert_query(self.model, values, **kwargs)
		  File "/home/rasika/virtualenvs/osqa/local/lib/python2.7/site-packages/django/db/models/query.py", line 1436, in insert_query
		    return query.get_compiler(using=using).execute_sql(return_id)
		  File "/home/rasika/virtualenvs/osqa/local/lib/python2.7/site-packages/django/db/models/sql/compiler.py", line 791, in execute_sql
		    cursor = super(SQLInsertCompiler, self).execute_sql(None)
		  File "/home/rasika/virtualenvs/osqa/local/lib/python2.7/site-packages/django/db/models/sql/compiler.py", line 735, in execute_sql
		    cursor.execute(sql, params)
		  File "/home/rasika/virtualenvs/osqa/local/lib/python2.7/site-packages/django/db/backends/mysql/base.py", line 86, in execute
		    return self.cursor.execute(query, args)
		  File "/home/rasika/virtualenvs/osqa/local/lib/python2.7/site-packages/MySQLdb/cursors.py", line 201, in execute
		    self.errorhandler(self, exc, value)
		  File "/home/rasika/virtualenvs/osqa/local/lib/python2.7/site-packages/MySQLdb/connections.py", line 36, in defaulterrorhandler
		    raise errorclass, errorvalue
		DatabaseError: (1146, "Table 'osqa.auth_message' doesn't exist")
		

        
/home/rasika/virtualenvs/osqa/local/lib/python2.7/site-packages/django/core/handlers/base.py TIME: 2012-10-16 04:03:59,528 MSG: base.py:handle_uncaught_exception:209 Internal Server Error: /account/twitter/signin/
Traceback (most recent call last):
  File "/home/rasika/virtualenvs/osqa/local/lib/python2.7/site-packages/django/core/handlers/base.py", line 111, in get_response
    response = callback(request, *callback_args, **callback_kwargs)
  File "/home/rasika/workspace/osqa/forum/views/auth.py", line 91, in prepare_provider_signin
    kwargs={'provider': provider}))
  File "/home/rasika/workspace/osqa/../osqa/forum_modules/oauthauth/consumer.py", line 29, in prepare_authentication_request
    request_token = self.fetch_request_token()
  File "/home/rasika/workspace/osqa/../osqa/forum_modules/oauthauth/consumer.py", line 66, in fetch_request_token
    response = urllib2.urlopen(full_url)
  File "/usr/lib/python2.7/urllib2.py", line 126, in urlopen
    return _opener.open(url, data, timeout)
  File "/usr/lib/python2.7/urllib2.py", line 406, in open
    response = meth(req, response)
  File "/usr/lib/python2.7/urllib2.py", line 519, in http_response
    'http', request, response, code, msg, hdrs)
  File "/usr/lib/python2.7/urllib2.py", line 444, in error
    return self._call_chain(*args)
  File "/usr/lib/python2.7/urllib2.py", line 378, in _call_chain
    result = func(*args)
  File "/usr/lib/python2.7/urllib2.py", line 527, in http_error_default
    raise HTTPError(req.get_full_url(), code, msg, hdrs, fp)
HTTPError: HTTP Error 401: Unauthorized
/home/rasika/workspace/osqa/forum/views/meta.py TIME: 2012-10-16 04:03:59,565 MSG: meta.py:error_handler:200 
        error executing request:
        PATH: /account/twitter/signin/
        USER: <anonymous>
        METHOD: GET
        POST PARAMETERS:
        None
        GET PARAMETERS:
        		validate_email: yes

        HTTP HEADERS:
        		wsgi.version: (1, 0)
		wsgi.multiprocess: False
		RUN_MAIN: true
		HTTP_REFERER: http://localhost:8000/account/signin/
		GNOME_DESKTOP_SESSION_ID: this-is-deprecated
		SERVER_PROTOCOL: HTTP/1.1
		SERVER_SOFTWARE: WSGIServer/0.1 Python/2.7.3
		SCRIPT_NAME: 
		LESSOPEN: | /usr/bin/lesspipe %s
		REQUEST_METHOD: GET
		LOGNAME: rasika
		USER: rasika
		PATH: /home/rasika/virtualenvs/osqa/bin:/usr/lib/lightdm/lightdm:/usr/local/sbin:/usr/local/bin:/usr/sbin:/usr/bin:/sbin:/bin:/usr/games
		QUERY_STRING: validate_email=yes
		GNOME_KEYRING_CONTROL: /tmp/keyring-ZyGQsX
		PS1: (osqa)\[\e]0;\u@\h: \w\a\]${debian_chroot:+($debian_chroot)}\u@\h:\w\$ 
		DISPLAY: :0
		SSH_AGENT_PID: 2049
		LANG: en_US.UTF-8
		HTTP_ACCEPT_CHARSET: ISO-8859-1,utf-8;q=0.7,*;q=0.3
		TERM: xterm
		SHELL: /bin/bash
		XDG_SESSION_PATH: /org/freedesktop/DisplayManager/Session0
		XAUTHORITY: /home/rasika/.Xauthority
		SERVER_NAME: localhost
		SESSION_MANAGER: local/rasika-ThinkPad-L420:@/tmp/.ICE-unix/2013,unix/rasika-ThinkPad-L420:/tmp/.ICE-unix/2013
		SHLVL: 1
		MANDATORY_PATH: /usr/share/gconf/ubuntu.mandatory.path
		wsgi.url_scheme: http
		COMPIZ_CONFIG_PROFILE: ubuntu
		WINDOWID: 94371846
		SERVER_PORT: 8000
		GPG_AGENT_INFO: /tmp/keyring-ZyGQsX/gpg:0:1
		HOME: /home/rasika
		REMOTE_ADDR: 127.0.0.1
		CONTENT_LENGTH: 
		HTTP_CONNECTION: keep-alive
		CONTENT_TYPE: text/plain
		SSH_AUTH_SOCK: /tmp/keyring-ZyGQsX/ssh
		VIRTUAL_ENV: /home/rasika/virtualenvs/osqa
		GDMSESSION: ubuntu
		DEFAULTS_PATH: /usr/share/gconf/ubuntu.default.path
		HTTP_USER_AGENT: Mozilla/5.0 (X11; Linux x86_64) AppleWebKit/536.11 (KHTML, like Gecko) Ubuntu/12.04 Chromium/20.0.1132.47 Chrome/20.0.1132.47 Safari/536.11
		HTTP_HOST: localhost:8000
		wsgi.multithread: True
		XDG_SEAT_PATH: /org/freedesktop/DisplayManager/Seat0
		LESSCLOSE: /usr/bin/lesspipe %s %s
		XDG_CURRENT_DESKTOP: Unity
		DBUS_SESSION_BUS_ADDRESS: unix:abstract=/tmp/dbus-3eGB1F2OiG,guid=9290205b3df956be400a21d800000022
		_: /home/rasika/virtualenvs/osqa/bin/python
		XDG_SESSION_COOKIE: 7733e6e57e2e0edfb0f422ae0000000b-1350362595.711630-2145301097
		HTTP_ACCEPT: text/html,application/xhtml+xml,application/xml;q=0.9,*/*;q=0.8
		DESKTOP_SESSION: ubuntu
		wsgi.file_wrapper: <class 'django.core.servers.basehttp.FileWrapper'>
		XDG_CONFIG_DIRS: /etc/xdg/xdg-ubuntu:/etc/xdg
		GNOME_KEYRING_PID: 2002
		UBUNTU_MENUPROXY: libappmenu.so
		wsgi.run_once: False
		CSRF_COOKIE: 30dd8b32bbe3e9001d59b2cb0f882a8f
		OLDPWD: /home/rasika/workspace
		GATEWAY_INTERFACE: CGI/1.1
		HTTP_ACCEPT_LANGUAGE: en-US,en;q=0.8
		wsgi.input: <socket._fileobject object at 0x7ff7d8f829d0>
		wsgi.errors: <open file '<stderr>', mode 'w' at 0x7ff7dfe5d270>
		XDG_DATA_DIRS: /usr/share/ubuntu:/usr/share/gnome:/usr/local/share/:/usr/share/
		PWD: /home/rasika/workspace/osqa
		DJANGO_SETTINGS_MODULE: osqa.settings
		TZ: America/New_York
		COLORTERM: gnome-terminal
		LS_COLORS: rs=0:di=01;34:ln=01;36:mh=00:pi=40;33:so=01;35:do=01;35:bd=40;33;01:cd=40;33;01:or=40;31;01:su=37;41:sg=30;43:ca=30;41:tw=30;42:ow=34;42:st=37;44:ex=01;32:*.tar=01;31:*.tgz=01;31:*.arj=01;31:*.taz=01;31:*.lzh=01;31:*.lzma=01;31:*.tlz=01;31:*.txz=01;31:*.zip=01;31:*.z=01;31:*.Z=01;31:*.dz=01;31:*.gz=01;31:*.lz=01;31:*.xz=01;31:*.bz2=01;31:*.bz=01;31:*.tbz=01;31:*.tbz2=01;31:*.tz=01;31:*.deb=01;31:*.rpm=01;31:*.jar=01;31:*.war=01;31:*.ear=01;31:*.sar=01;31:*.rar=01;31:*.ace=01;31:*.zoo=01;31:*.cpio=01;31:*.7z=01;31:*.rz=01;31:*.jpg=01;35:*.jpeg=01;35:*.gif=01;35:*.bmp=01;35:*.pbm=01;35:*.pgm=01;35:*.ppm=01;35:*.tga=01;35:*.xbm=01;35:*.xpm=01;35:*.tif=01;35:*.tiff=01;35:*.png=01;35:*.svg=01;35:*.svgz=01;35:*.mng=01;35:*.pcx=01;35:*.mov=01;35:*.mpg=01;35:*.mpeg=01;35:*.m2v=01;35:*.mkv=01;35:*.webm=01;35:*.ogm=01;35:*.mp4=01;35:*.m4v=01;35:*.mp4v=01;35:*.vob=01;35:*.qt=01;35:*.nuv=01;35:*.wmv=01;35:*.asf=01;35:*.rm=01;35:*.rmvb=01;35:*.flc=01;35:*.avi=01;35:*.fli=01;35:*.flv=01;35:*.gl=01;35:*.dl=01;35:*.xcf=01;35:*.xwd=01;35:*.yuv=01;35:*.cgm=01;35:*.emf=01;35:*.axv=01;35:*.anx=01;35:*.ogv=01;35:*.ogx=01;35:*.aac=00;36:*.au=00;36:*.flac=00;36:*.mid=00;36:*.midi=00;36:*.mka=00;36:*.mp3=00;36:*.mpc=00;36:*.ogg=00;36:*.ra=00;36:*.wav=00;36:*.axa=00;36:*.oga=00;36:*.spx=00;36:*.xspf=00;36:
		REMOTE_HOST: 
		HTTP_ACCEPT_ENCODING: gzip,deflate,sdch
		HTTP_COOKIE: greeting_set=True; csrftoken=30dd8b32bbe3e9001d59b2cb0f882a8f; sessionid=5fe5a8b7a9367d7a6574424f3518f083
		PATH_INFO: /account/twitter/signin/

        COOKIES:
        		csrftoken: 30dd8b32bbe3e9001d59b2cb0f882a8f
		sessionid: 5fe5a8b7a9367d7a6574424f3518f083
		greeting_set: True

        EXCEPTION INFO:
        		Traceback (most recent call last):
		  File "/home/rasika/virtualenvs/osqa/local/lib/python2.7/site-packages/django/core/handlers/base.py", line 111, in get_response
		    response = callback(request, *callback_args, **callback_kwargs)
		  File "/home/rasika/workspace/osqa/forum/views/auth.py", line 91, in prepare_provider_signin
		    kwargs={'provider': provider}))
		  File "/home/rasika/workspace/osqa/../osqa/forum_modules/oauthauth/consumer.py", line 29, in prepare_authentication_request
		    request_token = self.fetch_request_token()
		  File "/home/rasika/workspace/osqa/../osqa/forum_modules/oauthauth/consumer.py", line 66, in fetch_request_token
		    response = urllib2.urlopen(full_url)
		  File "/usr/lib/python2.7/urllib2.py", line 126, in urlopen
		    return _opener.open(url, data, timeout)
		  File "/usr/lib/python2.7/urllib2.py", line 406, in open
		    response = meth(req, response)
		  File "/usr/lib/python2.7/urllib2.py", line 519, in http_response
		    'http', request, response, code, msg, hdrs)
		  File "/usr/lib/python2.7/urllib2.py", line 444, in error
		    return self._call_chain(*args)
		  File "/usr/lib/python2.7/urllib2.py", line 378, in _call_chain
		    result = func(*args)
		  File "/usr/lib/python2.7/urllib2.py", line 527, in http_error_default
		    raise HTTPError(req.get_full_url(), code, msg, hdrs, fp)
		HTTPError: HTTP Error 401: Unauthorized
		

        
